my_FSMsec/my_FSMsec.sim/sim_1/behav/xsim/my_FSMsec_tb.vcd
$date
   Tue Oct 29 09:18:28 2024
$end

$version
  2023.2
  $dumpfile ("my_FSMsec_tb.vcd") 
$end

$timescale
  1ps
$end

$scope module my_FSMsec_tb $end
$var reg 4 ! keypad [3:0] $end
$var reg 1 " front_door $end
$var reg 1 # rear_door $end
$var reg 1 $ windows $end
$var reg 1 % rst $end
$var reg 1 & clk $end
$var wire 2 ' FSM_State [1:0] $end
$var wire 1 ( alarm_siren $end
$scope module uut $end
$var wire 4 ) keypad [3:0] $end
$var wire 1 * front_door $end
$var wire 1 + rear_door $end
$var wire 1 , windows $end
$var wire 1 - rst $end
$var wire 1 . clk $end
$var reg 2 / FSM_State [1:0] $end
$var reg 1 0 alarm_siren $end
$var reg 1 1 start_count $end
$var reg 1 2 count_done $end
$var reg 3 3 sensor [2:0] $end
$var integer 32 4 count_val [31:0] $end
$upscope $end
$upscope $end
$enddefinitions $end

#0
$dumpvars
b0 !
0"
0#
0$
0%
0&
bx '
x(
b0 )
0*
0+
0,
0-
0.
bx /
x0
x1
x2
bx 3
bx 4
$end

#5000
1&
1.

#10000
1%
0&
1-
0.

#15000
1&
b1 '
1.
b1 /
b0 4

#20000
0%
0&
0-
0.

#25000
1&
0(
1.
00
01

#30000
0&
0.

#35000
1&
1.
b1 4

#40000
b11 !
0&
b11 )
0.

#45000
1&
b10 '
1.
b10 /
b10 4

#50000
b0 !
0&
b0 )
0.

#55000
1&
1.
b11 4

#60000
0&
0.

#65000
1&
1.
b100 4

#70000
1"
0&
1*
0.

#75000
1&
1.
b101 4

#80000
0"
0&
0*
0.

#85000
1&
1.
b110 4

#90000
0&
0.

#95000
1&
1.
b111 4

#100000
0&
0.

#105000
1&
1.
b1000 4

#110000
0&
0.

#115000
1&
1.
b1001 4

#120000
0&
0.

#125000
1&
1.
b1010 4

#130000
b1100 !
0&
b1100 )
0.

#135000
1&
1.
b1011 4

#140000
b0 !
0&
b0 )
0.

#145000
1&
1.
b1100 4

#150000
0&
0.

#155000
1&
1.
b1101 4

#160000
1#
0&
1+
0.

#165000
1&
1.
b1110 4

#170000
1$
0&
1,
0.

#175000
1&
1.
b1111 4

#180000
0#
0$
0&
0+
0,
0.

#185000
1&
1.
b10000 4

#190000
0&
0.

#195000
1&
1.
b10001 4

#200000
0&
0.

#205000
1&
1.
b10010 4

#210000
0&
0.

#215000
1&
1.
b10011 4

#220000
0&
0.

#225000
1&
1.
b10100 4

#230000
0&
0.

#235000
1&
1.
b10101 4

#240000
0&
0.

#245000
1&
1.
b10110 4

#250000
0&
0.

#255000
1&
1.
b10111 4

#260000
0&
0.

#265000
1&
1.
b11000 4

#270000
0&
0.

#275000
1&
1.
b11001 4

#280000
0&
0.

#285000
1&
1.
b11010 4

#290000
0&
0.

#295000
1&
1.
b11011 4

#300000
0&
0.

#305000
1&
1.
b11100 4

#310000
0&
0.

#315000
1&
1.
b11101 4

#320000
0&
0.

#325000
1&
1.
b11110 4

#330000
0&
0.

#335000
1&
1.
b11111 4

#340000
0&
0.

#345000
1&
1.
b100000 4

#350000
0&
0.

#355000
1&
1.
b100001 4

#360000
0&
0.

#365000
1&
1.
b100010 4

#370000
0&
0.

#375000
1&
1.
b100011 4

#380000
0&
0.

#385000
1&
1.
b100100 4

#390000
0&
0.

#395000
1&
1.
b100101 4

#400000
0&
0.

#405000
1&
1.
b100110 4

#410000
0&
0.

#415000
1&
1.
b100111 4

#420000
0&
0.

#425000
1&
1.
b101000 4

#430000
0&
0.

#435000
1&
1.
b101001 4

#440000
0&
0.

#445000
1&
1.
b101010 4

#450000
0&
0.

#455000
1&
1.
b101011 4

#460000
0&
0.

#465000
1&
1.
b101100 4

#470000
0&
0.

#475000
1&
1.
b101101 4

#480000
0&
0.

#485000
1&
1.
b101110 4

#490000
0&
0.

#495000
1&
1.
b101111 4

#500000
0&
0.

#505000
1&
1.
b110000 4

#510000
0&
0.

#515000
1&
1.
b110001 4

#520000
0&
0.

#525000
1&
1.
b110010 4

#530000
0&
0.

#535000
1&
1.
b110011 4

#540000
0&
0.

#545000
1&
1.
b110100 4

#550000
0&
0.

#555000
1&
1.
b110101 4

#560000
0&
0.

#565000
1&
1.
b110110 4

#570000
0&
0.

#575000
1&
1.
b110111 4

#580000
0&
0.

#585000
1&
1.
b111000 4

#590000
0&
0.

#595000
1&
1.
b111001 4

#600000
0&
0.

#605000
1&
1.
b111010 4

#610000
0&
0.

#615000
1&
1.
b111011 4

#620000
0&
0.

#625000
1&
1.
b111100 4

#630000
0&
0.

#635000
1&
1.
b111101 4

#640000
0&
0.

#645000
1&
1.
b111110 4

#650000
0&
0.

#655000
1&
1.
b111111 4

#660000
0&
0.

#665000
1&
1.
b1000000 4

#670000
0&
0.

#675000
1&
1.
b1000001 4

#680000
0&
0.

#685000
1&
1.
b1000010 4

#690000
0&
0.

#695000
1&
1.
b1000011 4

#700000
0&
0.

#705000
1&
1.
b1000100 4

#710000
0&
0.

#715000
1&
1.
b1000101 4

#720000
0&
0.

#725000
1&
1.
b1000110 4

#730000
0&
0.

#735000
1&
1.
b1000111 4

#740000
0&
0.

#745000
1&
1.
b1001000 4

#750000
0&
0.

#755000
1&
1.
b1001001 4

#760000
0&
0.

#765000
1&
1.
b1001010 4

#770000
0&
0.

#775000
1&
1.
b1001011 4

#780000
0&
0.

#785000
1&
1.
b1001100 4

#790000
0&
0.

#795000
1&
1.
b1001101 4

#800000
0&
0.

#805000
1&
1.
b1001110 4

#810000
0&
0.

#815000
1&
1.
b1001111 4

#820000
0&
0.

#825000
1&
1.
b1010000 4

#830000
0&
0.

#835000
1&
1.
b1010001 4

#840000
0&
0.

#845000
1&
1.
b1010010 4

#850000
0&
0.

#855000
1&
1.
b1010011 4

#860000
0&
0.

#865000
1&
1.
b1010100 4

#870000
0&
0.

#875000
1&
1.
b1010101 4

#880000
0&
0.

#885000
1&
1.
b1010110 4

#890000
0&
0.

#895000
1&
1.
b1010111 4

#900000
0&
0.

#905000
1&
1.
b1011000 4

#910000
0&
0.

#915000
1&
1.
b1011001 4

#920000
0&
0.

#925000
1&
1.
b1011010 4

#930000
0&
0.

#935000
1&
1.
b1011011 4

#940000
0&
0.

#945000
1&
1.
b1011100 4

#950000
0&
0.

#955000
1&
1.
b1011101 4

#960000
0&
0.

#965000
1&
1.
b1011110 4

#970000
0&
0.

#975000
1&
1.
b1011111 4

#980000
0&
0.

#985000
1&
1.
b1100000 4

#990000
0&
0.

#995000
1&
1.
b1100001 4

#1000000
0&
0.

#1005000
1&
1.
b1100010 4

#1010000
0&
0.

#1015000
1&
1.
b1100011 4

#1020000
0&
0.

#1025000
1&
1.
b1100100 4

#1030000
0&
0.

#1035000
1&
1.
b1100101 4

#1040000
0&
0.

#1045000
1&
1.
b1100110 4

#1050000
0&
0.

#1055000
1&
1.
b1100111 4

#1060000
0&
0.

#1065000
1&
1.
b1101000 4

#1070000
0&
0.

#1075000
1&
1.
b1101001 4

#1080000
0&
0.

#1085000
1&
1.
b1101010 4

#1090000
0&
0.

#1095000
1&
1.
b1101011 4

#1100000
0&
0.

#1105000
1&
1.
b1101100 4

#1110000
0&
0.

#1115000
1&
1.
b1101101 4

#1120000
0&
0.

#1125000
1&
1.
b1101110 4

#1130000
0&
0.

#1135000
1&
1.
b1101111 4

#1140000
0&
0.

#1145000
1&
1.
b1110000 4

#1150000
0&
0.

#1155000
1&
1.
b1110001 4

#1160000
0&
0.

#1165000
1&
1.
b1110010 4

#1170000
0&
0.

#1175000
1&
1.
b1110011 4

#1180000
0&
0.

#1185000
1&
1.
b1110100 4

#1190000
0&
0.

#1195000
1&
1.
b1110101 4

#1200000
0&
0.

#1205000
1&
1.
b1110110 4

#1210000
0&
0.

#1215000
1&
1.
b1110111 4

#1220000
0&
0.

#1225000
1&
1.
b1111000 4

#1230000
0&
0.

#1235000
1&
1.
b1111001 4

#1240000
0&
0.

#1245000
1&
1.
b1111010 4

#1250000
0&
0.

#1255000
1&
1.
b1111011 4

#1260000
0&
0.

#1265000
1&
1.
b1111100 4

#1270000
0&
0.

#1275000
1&
1.
b1111101 4

#1280000
0&
0.

#1285000
1&
1.
b1111110 4

#1290000
0&
0.

#1295000
1&
1.
b1111111 4

#1300000
0&
0.

#1305000
1&
1.
b10000000 4

#1310000
0&
0.

#1315000
1&
1.
b10000001 4

#1320000
0&
0.

#1325000
1&
1.
b10000010 4

#1330000
0&
0.

#1335000
1&
1.
b10000011 4

#1340000
0&
0.

#1345000
1&
1.
b10000100 4

#1350000
0&
0.

#1355000
1&
1.
b10000101 4

#1360000
0&
0.

#1365000
1&
1.
b10000110 4

#1370000
0&
0.

#1375000
1&
1.
b10000111 4

#1380000
0&
0.

#1385000
1&
1.
b10001000 4

#1390000
0&
0.

#1395000
1&
1.
b10001001 4

#1400000
0&
0.

#1405000
1&
1.
b10001010 4

#1410000
0&
0.

#1415000
1&
1.
b10001011 4

#1420000
0&
0.

#1425000
1&
1.
b10001100 4

#1430000
0&
0.

#1435000
1&
1.
b10001101 4

#1440000
0&
0.

#1445000
1&
1.
b10001110 4

#1450000
0&
0.

#1455000
1&
1.
b10001111 4

#1460000
0&
0.

#1465000
1&
1.
b10010000 4

#1470000
0&
0.

#1475000
1&
1.
b10010001 4

